Measuring Impact in HR: A Practical Demonstration
…
# Ingest our training assessment results
assessment_results_tbl <- readxl::read_excel(path = "groupimpact_files/training_data.xlsx") %>% 
                          janitor::clean_names()

# Get a feel for the data and its structure
dplyr::glimpse(assessment_results_tbl)

## Rows: 27
## Columns: 2
## $ training <chr> "A", "A", "A", "A", "A", "A", "A", "A", "A", "A", …
## $ result   <dbl> 56, 50, 52, 44, 52, 47, 47, 53, 45, 48, 42, 51, 42…

assessment_results_tbl

## # A tibble: 27 x 2
##    training result
##    <chr>     <dbl>
##  1 A            56
##  2 A            50
##  3 A            52
##  4 A            44
##  5 A            52
##  6 A            47
##  7 A            47
##  8 A            53
##  9 A            45
## 10 A            48
## # … with 17 more rows
…
